<mxfile host="app.diagrams.net" modified="2022-10-06T18:02:32.691Z" agent="5.0 (Windows NT 10.0; Win64; x64) AppleWebKit/537.36 (KHTML, like Gecko) Chrome/107.0.0.0 Safari/537.36" etag="Es8atVN5shn6TDO5PwEc" version="20.4.0" type="gitlab">
  <diagram id="wLe4F49TLQgfgPbkEXhD" name="Страница 1">
    <mxGraphModel dx="1187" dy="628" grid="1" gridSize="10" guides="1" tooltips="1" connect="1" arrows="1" fold="1" page="1" pageScale="1" pageWidth="827" pageHeight="1169" math="0" shadow="0">
      <root>
        <mxCell id="0" />
        <mxCell id="1" parent="0" />
        <mxCell id="uv1zEeJMHeZ9YuTZVMMj-8" style="edgeStyle=orthogonalEdgeStyle;rounded=0;orthogonalLoop=1;jettySize=auto;html=1;exitX=0.5;exitY=1;exitDx=0;exitDy=0;entryX=0.5;entryY=0;entryDx=0;entryDy=0;fontFamily=Times New Roman;fontSize=17;endArrow=none;endFill=0;" edge="1" parent="1" source="-QBMU5s8RViqjQFn6hvx-2" target="-QBMU5s8RViqjQFn6hvx-3">
          <mxGeometry relative="1" as="geometry" />
        </mxCell>
        <mxCell id="-QBMU5s8RViqjQFn6hvx-2" value="Start" style="rounded=1;whiteSpace=wrap;html=1;arcSize=50;fontFamily=Times New Roman;fontSize=17;" parent="1" vertex="1">
          <mxGeometry x="350" y="50" width="110" height="50" as="geometry" />
        </mxCell>
        <mxCell id="uv1zEeJMHeZ9YuTZVMMj-9" style="edgeStyle=orthogonalEdgeStyle;rounded=0;orthogonalLoop=1;jettySize=auto;html=1;exitX=0.5;exitY=1;exitDx=0;exitDy=0;fontFamily=Times New Roman;fontSize=17;endArrow=none;endFill=0;" edge="1" parent="1" source="-QBMU5s8RViqjQFn6hvx-3" target="uv1zEeJMHeZ9YuTZVMMj-1">
          <mxGeometry relative="1" as="geometry" />
        </mxCell>
        <mxCell id="-QBMU5s8RViqjQFn6hvx-3" value="a,b &amp;gt; 0,&amp;nbsp;&lt;b style=&quot;color: rgb(32, 33, 36); font-family: arial, sans-serif; font-size: 16px; text-align: left; background-color: rgb(255, 255, 255);&quot;&gt;∈ &lt;/b&gt;&lt;span style=&quot;color: rgb(32, 33, 36); font-family: arial, sans-serif; font-size: 16px; text-align: left; background-color: rgb(255, 255, 255);&quot;&gt;R&lt;/span&gt;" style="shape=parallelogram;perimeter=parallelogramPerimeter;whiteSpace=wrap;html=1;fixedSize=1;fontFamily=Times New Roman;fontSize=17;" parent="1" vertex="1">
          <mxGeometry x="345" y="130" width="120" height="50" as="geometry" />
        </mxCell>
        <mxCell id="uv1zEeJMHeZ9YuTZVMMj-10" style="edgeStyle=orthogonalEdgeStyle;rounded=0;orthogonalLoop=1;jettySize=auto;html=1;exitX=0.5;exitY=1;exitDx=0;exitDy=0;fontFamily=Times New Roman;fontSize=17;endArrow=none;endFill=0;" edge="1" parent="1" source="uv1zEeJMHeZ9YuTZVMMj-1" target="uv1zEeJMHeZ9YuTZVMMj-5">
          <mxGeometry relative="1" as="geometry" />
        </mxCell>
        <mxCell id="uv1zEeJMHeZ9YuTZVMMj-1" value="c = (a + b) / 2" style="rounded=0;whiteSpace=wrap;html=1;fontSize=17;fontFamily=Times New Roman;" vertex="1" parent="1">
          <mxGeometry x="347.5" y="210" width="115" height="50" as="geometry" />
        </mxCell>
        <mxCell id="uv1zEeJMHeZ9YuTZVMMj-11" style="edgeStyle=orthogonalEdgeStyle;rounded=0;orthogonalLoop=1;jettySize=auto;html=1;exitX=0.5;exitY=1;exitDx=0;exitDy=0;entryX=0.5;entryY=0;entryDx=0;entryDy=0;fontFamily=Times New Roman;fontSize=17;endArrow=none;endFill=0;" edge="1" parent="1" source="uv1zEeJMHeZ9YuTZVMMj-5" target="uv1zEeJMHeZ9YuTZVMMj-7">
          <mxGeometry relative="1" as="geometry" />
        </mxCell>
        <mxCell id="uv1zEeJMHeZ9YuTZVMMj-5" value="c" style="shape=parallelogram;perimeter=parallelogramPerimeter;whiteSpace=wrap;html=1;fixedSize=1;fontFamily=Times New Roman;fontSize=17;" vertex="1" parent="1">
          <mxGeometry x="345" y="290" width="120" height="50" as="geometry" />
        </mxCell>
        <mxCell id="uv1zEeJMHeZ9YuTZVMMj-7" value="End" style="rounded=1;whiteSpace=wrap;html=1;arcSize=50;fontFamily=Times New Roman;fontSize=17;" vertex="1" parent="1">
          <mxGeometry x="350" y="370" width="110" height="50" as="geometry" />
        </mxCell>
      </root>
    </mxGraphModel>
  </diagram>
</mxfile>
